
{
  "plus_code": {
    "compound_code": "8M8R+5Q ตำบล ดอนสัก อำเภอ ดอนสัก สุราษฎร์ธานี ประเทศไทย",
    "global_code": "6MXX8M8R+5Q"
  },
  "results": [
    {
      "address_components": [
        {
          "long_name": "ตำบล ดอนสัก",
          "short_name": "ตำบล ดอนสัก",
          "types": [
            "locality",
            "political"
          ]
        },
        {
          "long_name": "อำเภอ ดอนสัก",
          "short_name": "อ.ดอนสัก",
          "types": [
            "administrative_area_level_2",
            "political"
          ]
        },
        {
          "long_name": "สุราษฎร์ธานี",
          "short_name": "จ.สุราษฎร์ธานี",
          "types": [
            "administrative_area_level_1",
            "political"
          ]
        },
        {
          "long_name": "ประเทศไทย",
          "short_name": "TH",
          "types": [
            "country",
            "political"
          ]
        },
        {
          "long_name": "84220",
          "short_name": "84220",
          "types": [
            "postal_code"
          ]
        }
      ],
      "formatted_address": "16/3 ม.5 ต ตำบล ดอนสัก อำเภอ ดอนสัก สุราษฎร์ธานี 84220 ประเทศไทย",
      "geometry": {
        "location": {
          "lat": 9.3151718,
          "lng": 99.6917821
        },
        "location_type": "GEOMETRIC_CENTER",
        "viewport": {
          "northeast": {
            "lat": 9.316520780291503,
            "lng": 99.69313108029151
          },
          "southwest": {
            "lat": 9.313822819708498,
            "lng": 99.6904331197085
          }
        }
      },
      "place_id": "ChIJW2I00nhvVDAR8YBXQlJEf58",
      "plus_code": {
        "compound_code": "8M8R+3P ตำบล ดอนสัก อำเภอ ดอนสัก สุราษฎร์ธานี ประเทศไทย",
        "global_code": "6MXX8M8R+3P"
      },
      "types": [
        "establishment",
        "point_of_interest",
        "school"
      ]
    },
    {
      "address_components": [
        {
          "long_name": "Tha Thiap Ruea Lung Thing Donsak Co.,Ltd.",
          "short_name": "Tha Thiap Ruea Lung Thing Donsak Co.,Ltd.",
          "types": [
            "establishment",
            "point_of_interest",
            "transit_station"
          ]
        },
        {
          "long_name": "ตำบล ดอนสัก",
          "short_name": "ตำบล ดอนสัก",
          "types": [
            "locality",
            "political"
          ]
        },
        {
          "long_name": "อำเภอ ดอนสัก",
          "short_name": "อ.ดอนสัก",
          "types": [
            "administrative_area_level_2",
            "political"
          ]
        },
        {
          "long_name": "สุราษฎร์ธานี",
          "short_name": "จ.สุราษฎร์ธานี",
          "types": [
            "administrative_area_level_1",
            "political"
          ]
        },
        {
          "long_name": "ประเทศไทย",
          "short_name": "TH",
          "types": [
            "country",
            "political"
          ]
        },
        {
          "long_name": "84220",
          "short_name": "84220",
          "types": [
            "postal_code"
          ]
        }
      ],
      "formatted_address": "Tha Thiap Ruea Lung Thing Donsak Co.,Ltd., 335/2, Moo 5, Tambon Don Sak, Amphoe Don Sak, Surat Thani, 84220, ตำบล ดอนสัก อำเภอ ดอนสัก สุราษฎร์ธานี 84220 ประเทศไทย",
      "geometry": {
        "location": {
          "lat": 9.314713299999999,
          "lng": 99.6926203
        },
        "location_type": "GEOMETRIC_CENTER",
        "viewport": {
          "northeast": {
            "lat": 9.316062280291503,
            "lng": 99.69396928029151
          },
          "southwest": {
            "lat": 9.313364319708498,
            "lng": 99.69127131970851
          }
        }
      },
      "place_id": "ChIJffAJ-DBvVDARiGuMzM9X8u8",
      "plus_code": {
        "compound_code": "8M7V+V2 ตำบล ดอนสัก อำเภอ ดอนสัก สุราษฎร์ธานี ประเทศไทย",
        "global_code": "6MXX8M7V+V2"
      },
      "types": [
        "establishment",
        "point_of_interest",
        "transit_station"
      ]
    },
    {
      "address_components": [
        {
          "long_name": "Unnamed Road",
          "short_name": "Unnamed Road",
          "types": [
            "route"
          ]
        },
        {
          "long_name": "ตำบล ดอนสัก",
          "short_name": "ตำบล ดอนสัก",
          "types": [
            "locality",
            "political"
          ]
        },
        {
          "long_name": "อำเภอ ดอนสัก",
          "short_name": "อ.ดอนสัก",
          "types": [
            "administrative_area_level_2",
            "political"
          ]
        },
        {
          "long_name": "สุราษฎร์ธานี",
          "short_name": "จ.สุราษฎร์ธานี",
          "types": [
            "administrative_area_level_1",
            "political"
          ]
        },
        {
          "long_name": "ประเทศไทย",
          "short_name": "TH",
          "types": [
            "country",
            "political"
          ]
        },
        {
          "long_name": "84220",
          "short_name": "84220",
          "types": [
            "postal_code"
          ]
        }
      ],
      "formatted_address": "Unnamed Road, ตำบล ดอนสัก อำเภอ ดอนสัก สุราษฎร์ธานี 84220 ประเทศไทย",
      "geometry": {
        "bounds": {
          "northeast": {
            "lat": 9.3154722,
            "lng": 99.6918469
          },
          "southwest": {
            "lat": 9.3149914,
            "lng": 99.6906613
          }
        },
        "location": {
          "lat": 9.3150338,
          "lng": 99.6912751
        },
        "location_type": "GEOMETRIC_CENTER",
        "viewport": {
          "northeast": {
            "lat": 9.316580780291503,
            "lng": 99.69260308029151
          },
          "southwest": {
            "lat": 9.313882819708498,
            "lng": 99.6899051197085
          }
        }
      },
      "place_id": "ChIJuVqESjBvVDARBACWohoHCws",
      "types": [
        "route"
      ]
    },
    {
      "address_components": [
        {
          "long_name": "ตำบล ดอนสัก",
          "short_name": "ตำบล ดอนสัก",
          "types": [
            "locality",
            "political"
          ]
        },
        {
          "long_name": "อำเภอ ดอนสัก",
          "short_name": "อ.ดอนสัก",
          "types": [
            "administrative_area_level_2",
            "political"
          ]
        },
        {
          "long_name": "สุราษฎร์ธานี",
          "short_name": "จ.สุราษฎร์ธานี",
          "types": [
            "administrative_area_level_1",
            "political"
          ]
        },
        {
          "long_name": "ประเทศไทย",
          "short_name": "TH",
          "types": [
            "country",
            "political"
          ]
        }
      ],
      "formatted_address": "ตำบล ดอนสัก อำเภอ ดอนสัก สุราษฎร์ธานี ประเทศไทย",
      "geometry": {
        "bounds": {
          "northeast": {
            "lat": 9.3541335,
            "lng": 99.7737982
          },
          "southwest": {
            "lat": 9.160515199999999,
            "lng": 99.6412411
          }
        },
        "location": {
          "lat": 9.2823238,
          "lng": 99.7076122
        },
        "location_type": "APPROXIMATE",
        "viewport": {
          "northeast": {
            "lat": 9.3541335,
            "lng": 99.7737982
          },
          "southwest": {
            "lat": 9.160515199999999,
            "lng": 99.6412411
          }
        }
      },
      "place_id": "ChIJnZo-J-9vVDARgCY4LLwjAgQ",
      "types": [
        "locality",
        "political"
      ]
    },
    {
      "address_components": [
        {
          "long_name": "84220",
          "short_name": "84220",
          "types": [
            "postal_code"
          ]
        },
        {
          "long_name": "สุราษฎร์ธานี",
          "short_name": "จ.สุราษฎร์ธานี",
          "types": [
            "administrative_area_level_1",
            "political"
          ]
        },
        {
          "long_name": "ประเทศไทย",
          "short_name": "TH",
          "types": [
            "country",
            "political"
          ]
        }
      ],
      "formatted_address": "สุราษฎร์ธานี 84220 ประเทศไทย",
      "geometry": {
        "bounds": {
          "northeast": {
            "lat": 9.434145900000001,
            "lng": 99.7693529
          },
          "southwest": {
            "lat": 9.147867999999999,
            "lng": 99.6189421
          }
        },
        "location": {
          "lat": 9.2575877,
          "lng": 99.70097539999999
        },
        "location_type": "APPROXIMATE",
        "viewport": {
          "northeast": {
            "lat": 9.434145900000001,
            "lng": 99.7693529
          },
          "southwest": {
            "lat": 9.147867999999999,
            "lng": 99.6189421
          }
        }
      },
      "place_id": "ChIJsbbjKEdvVDARIub79rsjAhM",
      "types": [
        "postal_code"
      ]
    },
    {
      "address_components": [
        {
          "long_name": "อำเภอ ดอนสัก",
          "short_name": "อ.ดอนสัก",
          "types": [
            "administrative_area_level_2",
            "political"
          ]
        },
        {
          "long_name": "สุราษฎร์ธานี",
          "short_name": "จ.สุราษฎร์ธานี",
          "types": [
            "administrative_area_level_1",
            "political"
          ]
        },
        {
          "long_name": "ประเทศไทย",
          "short_name": "TH",
          "types": [
            "country",
            "political"
          ]
        }
      ],
      "formatted_address": "อำเภอ ดอนสัก สุราษฎร์ธานี ประเทศไทย",
      "geometry": {
        "bounds": {
          "northeast": {
            "lat": 9.3541335,
            "lng": 99.7796845
          },
          "southwest": {
            "lat": 9.0307847,
            "lng": 99.5727455
          }
        },
        "location": {
          "lat": 9.213790399999999,
          "lng": 99.70097539999999
        },
        "location_type": "APPROXIMATE",
        "viewport": {
          "northeast": {
            "lat": 9.3541335,
            "lng": 99.7796845
          },
          "southwest": {
            "lat": 9.0307847,
            "lng": 99.5727455
          }
        }
      },
      "place_id": "ChIJ5cAv_wJxVDARwIA2LLwjAgM",
      "types": [
        "administrative_area_level_2",
        "political"
      ]
    },
    {
      "address_components": [
        {
          "long_name": "สุราษฎร์ธานี",
          "short_name": "จ.สุราษฎร์ธานี",
          "types": [
            "administrative_area_level_1",
            "political"
          ]
        },
        {
          "long_name": "ประเทศไทย",
          "short_name": "TH",
          "types": [
            "country",
            "political"
          ]
        }
      ],
      "formatted_address": "สุราษฎร์ธานี ประเทศไทย",
      "geometry": {
        "bounds": {
          "northeast": {
            "lat": 10.1269879,
            "lng": 100.0906548
          },
          "southwest": {
            "lat": 8.3008059,
            "lng": 98.44308839999999
          }
        },
        "location": {
          "lat": 9.138238899999999,
          "lng": 99.3217483
        },
        "location_type": "APPROXIMATE",
        "viewport": {
          "northeast": {
            "lat": 10.1269879,
            "lng": 100.0906548
          },
          "southwest": {
            "lat": 8.3008059,
            "lng": 98.44308839999999
          }
        }
      },
      "place_id": "ChIJz22WBHADVDARwEw2LLwjAgE",
      "types": [
        "administrative_area_level_1",
        "political"
      ]
    },
    {
      "address_components": [
        {
          "long_name": "ประเทศไทย",
          "short_name": "TH",
          "types": [
            "country",
            "political"
          ]
        }
      ],
      "formatted_address": "ประเทศไทย",
      "geometry": {
        "bounds": {
          "northeast": {
            "lat": 20.465143,
            "lng": 105.636812
          },
          "southwest": {
            "lat": 5.613038,
            "lng": 97.343396
          }
        },
        "location": {
          "lat": 15.870032,
          "lng": 100.992541
        },
        "location_type": "APPROXIMATE",
        "viewport": {
          "northeast": {
            "lat": 20.465143,
            "lng": 105.636812
          },
          "southwest": {
            "lat": 5.613038,
            "lng": 97.343396
          }
        }
      },
      "place_id": "ChIJsU1CR_eNTTARAuhXB4gs154",
      "types": [
        "country",
        "political"
      ]
    },
    {
      "address_components": [
        {
          "long_name": "8M8R+5Q",
          "short_name": "8M8R+5Q",
          "types": [
            "plus_code"
          ]
        },
        {
          "long_name": "ตำบล ดอนสัก",
          "short_name": "ตำบล ดอนสัก",
          "types": [
            "locality",
            "political"
          ]
        },
        {
          "long_name": "อำเภอ ดอนสัก",
          "short_name": "อ.ดอนสัก",
          "types": [
            "administrative_area_level_2",
            "political"
          ]
        },
        {
          "long_name": "สุราษฎร์ธานี",
          "short_name": "จ.สุราษฎร์ธานี",
          "types": [
            "administrative_area_level_1",
            "political"
          ]
        },
        {
          "long_name": "ประเทศไทย",
          "short_name": "TH",
          "types": [
            "country",
            "political"
          ]
        }
      ],
      "formatted_address": "8M8R+5Q ตำบล ดอนสัก อำเภอ ดอนสัก สุราษฎร์ธานี ประเทศไทย",
      "geometry": {
        "bounds": {
          "northeast": {
            "lat": 9.3155,
            "lng": 99.69199999999999
          },
          "southwest": {
            "lat": 9.315375,
            "lng": 99.691875
          }
        },
        "location": {
          "lat": 9.315495,
          "lng": 99.6918821
        },
        "location_type": "ROOFTOP",
        "viewport": {
          "northeast": {
            "lat": 9.316786480291501,
            "lng": 99.6932864802915
          },
          "southwest": {
            "lat": 9.314088519708497,
            "lng": 99.6905885197085
          }
        }
      },
      "place_id": "GhIJYRqGj4ihIkARBQzcy0fsWEA",
      "plus_code": {
        "compound_code": "8M8R+5Q ตำบล ดอนสัก อำเภอ ดอนสัก สุราษฎร์ธานี ประเทศไทย",
        "global_code": "6MXX8M8R+5Q"
      },
      "types": [
        "plus_code"
      ]
    }
  ],
  "status": "OK"
}
